simulation/modelsim/msim_transcript
# Reading C:/intelFPGA_lite/18.1/modelsim_ase/tcl/vsim/pref.tcl
# do Gambling_Tec_run_msim_rtl_verilog.do
# if {[file exists rtl_work]} {
# 	vdel -lib rtl_work -all
# }
# vlib rtl_work
# vmap work rtl_work
# Model Technology ModelSim - Intel FPGA Edition vmap 10.5b Lib Mapping Utility 2016.10 Oct  5 2016
# vmap work rtl_work 
# Copying C:/intelFPGA_lite/18.1/modelsim_ase/win32aloem/../modelsim.ini to modelsim.ini
# Modifying modelsim.ini
# 
# vlog -sv -work work +incdir+C:/Users/josee/CE3201_PF {C:/Users/josee/CE3201_PF/Rom_tile.sv}
# Model Technology ModelSim - Intel FPGA Edition vlog 10.5b Compiler 2016.10 Oct  5 2016
# Start time: 18:25:35 on Jun 15,2025
# vlog -reportprogress 300 -sv -work work "+incdir+C:/Users/josee/CE3201_PF" C:/Users/josee/CE3201_PF/Rom_tile.sv 
# -- Compiling module Rom_tile
# 
# Top level modules:
# 	Rom_tile
# End time: 18:25:35 on Jun 15,2025, Elapsed time: 0:00:00
# Errors: 0, Warnings: 0
# 
# vlog -sv -work work +incdir+C:/Users/josee/CE3201_PF {C:/Users/josee/CE3201_PF/tb_Rom_tile.sv}
# Model Technology ModelSim - Intel FPGA Edition vlog 10.5b Compiler 2016.10 Oct  5 2016
# Start time: 18:25:35 on Jun 15,2025
# vlog -reportprogress 300 -sv -work work "+incdir+C:/Users/josee/CE3201_PF" C:/Users/josee/CE3201_PF/tb_Rom_tile.sv 
# -- Compiling module tb_Rom_tile
# 
# Top level modules:
# 	tb_Rom_tile
# End time: 18:25:35 on Jun 15,2025, Elapsed time: 0:00:00
# Errors: 0, Warnings: 0
# 
# vsim -t 1ps -L altera_ver -L lpm_ver -L sgate_ver -L altera_mf_ver -L altera_lnsim_ver -L cyclonev_ver -L cyclonev_hssi_ver -L cyclonev_pcie_hip_ver -L rtl_work -L work -voptargs="+acc"  tb_Rom_tile
# vsim -t 1ps -L altera_ver -L lpm_ver -L sgate_ver -L altera_mf_ver -L altera_lnsim_ver -L cyclonev_ver -L cyclonev_hssi_ver -L cyclonev_pcie_hip_ver -L rtl_work -L work -voptargs=""+acc"" tb_Rom_tile 
# Start time: 18:25:35 on Jun 15,2025
# Loading sv_std.std
# Loading work.tb_Rom_tile
# Loading work.Rom_tile
# 
# add wave *
# view structure
# .main_pane.structure.interior.cs.body.struct
# view signals
# .main_pane.objects.interior.cs.body.tree
# run -all
# ---- Testbench para Rom_tile ----
#  Q_X | Q_Y | Visible |   R   G   B
#  420 |  160 |    1    |   0   0 255
#  421 |  160 |    1    |   0   0 255
#  422 |  160 |    1    |   0   0 255
#  423 |  160 |    1    |   0   0 255
#  424 |  160 |    1    |   0   0 255
#  425 |  160 |    1    |   0   0 255
#  426 |  160 |    1    | 255 255   0
#  427 |  160 |    1    | 255 255   0
#  428 |  160 |    1    | 255 255   0
#  429 |  160 |    1    | 255 255   0
#  430 |  160 |    1    | 255 255   0
#  431 |  160 |    1    | 255 255   0
#  432 |  160 |    1    | 255 255   0
#  433 |  160 |    1    | 255 255   0
#  434 |  160 |    1    | 255 255   0
#  435 |  160 |    1    | 255 255   0
#  436 |  160 |    1    |   0   0 255
#  437 |  160 |    1    |   0   0 255
#  438 |  160 |    1    |   0   0 255
#  439 |  160 |    1    |   0   0 255
#  440 |  160 |    1    |   0   0   0
#  420 |  161 |    1    |   0   0 255
#  421 |  161 |    1    |   0   0 255
#  422 |  161 |    1    |   0   0 255
#  423 |  161 |    1    |   0   0 255
#  424 |  161 |    1    |   0   0 255
#  425 |  161 |    1    |   0   0 255
#  426 |  161 |    1    | 255 255   0
#  427 |  161 |    1    | 255 255   0
#  428 |  161 |    1    | 255 255   0
#  429 |  161 |    1    | 255 255   0
#  430 |  161 |    1    | 255 255   0
#  431 |  161 |    1    | 255 255   0
#  432 |  161 |    1    | 255 255   0
#  433 |  161 |    1    | 255 255   0
#  434 |  161 |    1    | 255 255   0
#  435 |  161 |    1    | 255 255   0
#  436 |  161 |    1    |   0   0 255
#  437 |  161 |    1    |   0   0 255
#  438 |  161 |    1    |   0   0 255
#  439 |  161 |    1    |   0   0 255
#  440 |  161 |    1    |   0   0   0
#  420 |  162 |    1    |   0   0 255
#  421 |  162 |    1    |   0   0 255
#  422 |  162 |    1    |   0   0 255
#  423 |  162 |    1    |   0   0 255
#  424 |  162 |    1    |   0   0 255
#  425 |  162 |    1    |   0   0 255
#  426 |  162 |    1    | 255 255   0
#  427 |  162 |    1    | 255 255   0
#  428 |  162 |    1    | 255 255   0
#  429 |  162 |    1    | 255 255   0
#  430 |  162 |    1    | 255 255   0
#  431 |  162 |    1    | 255 255   0
#  432 |  162 |    1    | 255 255   0
#  433 |  162 |    1    | 255 255   0
#  434 |  162 |    1    | 255 255   0
#  435 |  162 |    1    | 255 255   0
#  436 |  162 |    1    |   0   0 255
#  437 |  162 |    1    |   0   0 255
#  438 |  162 |    1    |   0   0 255
#  439 |  162 |    1    |   0   0 255
#  440 |  162 |    1    |   0   0   0
#  420 |  163 |    1    | 255 255   0
#  421 |  163 |    1    | 255 255   0
#  422 |  163 |    1    |   0   0 255
#  423 |  163 |    1    | 255 255   0
#  424 |  163 |    1    | 255 255   0
#  425 |  163 |    1    | 255 255   0
#  426 |  163 |    1    | 255 255   0
#  427 |  163 |    1    | 255 255   0
#  428 |  163 |    1    | 255 255   0
#  429 |  163 |    1    | 255 255   0
#  430 |  163 |    1    | 255 255   0
#  431 |  163 |    1    | 255 255   0
#  432 |  163 |    1    | 255 255   0
#  433 |  163 |    1    |   0   0 255
#  434 |  163 |    1    |   0   0 255
#  435 |  163 |    1    |   0   0 255
#  436 |  163 |    1    |   0   0 255
#  437 |  163 |    1    | 255 255   0
#  438 |  163 |    1    | 255 255   0
#  439 |  163 |    1    | 255 255   0
#  440 |  163 |    1    |   0   0   0
#  420 |  164 |    1    | 255 255   0
#  421 |  164 |    1    | 255 255   0
#  422 |  164 |    1    |   0   0 255
#  423 |  164 |    1    | 255 255   0
#  424 |  164 |    1    | 255 255   0
#  425 |  164 |    1    | 255 255   0
#  426 |  164 |    1    | 255 255   0
#  427 |  164 |    1    | 255 255   0
#  428 |  164 |    1    | 255 255   0
#  429 |  164 |    1    | 255 255   0
#  430 |  164 |    1    | 255 255   0
#  431 |  164 |    1    | 255 255   0
#  432 |  164 |    1    | 255 255   0
#  433 |  164 |    1    |   0   0 255
#  434 |  164 |    1    |   0   0 255
#  435 |  164 |    1    |   0   0 255
#  436 |  164 |    1    |   0   0 255
#  437 |  164 |    1    | 255 255   0
#  438 |  164 |    1    | 255 255   0
#  439 |  164 |    1    | 255 255   0
#  440 |  164 |    1    |   0   0   0
#  420 |  165 |    1    | 255 255   0
#  421 |  165 |    1    | 255 255   0
#  422 |  165 |    1    |   0   0 255
#  423 |  165 |    1    | 255 255   0
#  424 |  165 |    1    | 255 255   0
#  425 |  165 |    1    | 255 255   0
#  426 |  165 |    1    | 255 255   0
#  427 |  165 |    1    | 255 255   0
#  428 |  165 |    1    | 255 255   0
#  429 |  165 |    1    | 255 255   0
#  430 |  165 |    1    | 255 255   0
#  431 |  165 |    1    | 255 255   0
#  432 |  165 |    1    | 255 255   0
#  433 |  165 |    1    |   0   0 255
#  434 |  165 |    1    |   0   0 255
#  435 |  165 |    1    |   0   0 255
#  436 |  165 |    1    |   0   0 255
#  437 |  165 |    1    | 255 255   0
#  438 |  165 |    1    | 255 255   0
#  439 |  165 |    1    | 255 255   0
#  440 |  165 |    1    |   0   0   0
#  420 |  166 |    1    |   0   0 255
#  421 |  166 |    1    |   0   0 255
#  422 |  166 |    1    |   0   0 255
#  423 |  166 |    1    |   0   0 255
#  424 |  166 |    1    |   0   0 255
#  425 |  166 |    1    |   0   0 255
#  426 |  166 |    1    | 255 255   0
#  427 |  166 |    1    | 255 255   0
#  428 |  166 |    1    | 255 255   0
#  429 |  166 |    1    | 255 255   0
#  430 |  166 |    1    | 255 255   0
#  431 |  166 |    1    | 255 255   0
#  432 |  166 |    1    | 255 255   0
#  433 |  166 |    1    | 255 255   0
#  434 |  166 |    1    | 255 255   0
#  435 |  166 |    1    | 255 255   0
#  436 |  166 |    1    |   0   0 255
#  437 |  166 |    1    |   0   0 255
#  438 |  166 |    1    |   0   0 255
#  439 |  166 |    1    |   0   0 255
#  440 |  166 |    1    |   0   0   0
#  420 |  167 |    1    |   0   0 255
#  421 |  167 |    1    |   0   0 255
#  422 |  167 |    1    |   0   0 255
#  423 |  167 |    1    |   0   0 255
#  424 |  167 |    1    |   0   0 255
#  425 |  167 |    1    |   0   0 255
#  426 |  167 |    1    | 255 255   0
#  427 |  167 |    1    | 255 255   0
#  428 |  167 |    1    | 255 255   0
#  429 |  167 |    1    | 255 255   0
#  430 |  167 |    1    | 255 255   0
#  431 |  167 |    1    | 255 255   0
#  432 |  167 |    1    | 255 255   0
#  433 |  167 |    1    | 255 255   0
#  434 |  167 |    1    | 255 255   0
#  435 |  167 |    1    | 255 255   0
#  436 |  167 |    1    |   0   0 255
#  437 |  167 |    1    |   0   0 255
#  438 |  167 |    1    |   0   0 255
#  439 |  167 |    1    |   0   0 255
#  440 |  167 |    1    |   0   0   0
#  420 |  168 |    1    |   0   0 255
#  421 |  168 |    1    |   0   0 255
#  422 |  168 |    1    |   0   0 255
#  423 |  168 |    1    | 255 255   0
#  424 |  168 |    1    | 255 255   0
#  425 |  168 |    1    | 255 255   0
#  426 |  168 |    1    | 255 255   0
#  427 |  168 |    1    | 255 255   0
#  428 |  168 |    1    | 255 255   0
#  429 |  168 |    1    | 255 255   0
#  430 |  168 |    1    | 255 255   0
#  431 |  168 |    1    | 255 255   0
#  432 |  168 |    1    | 255 255   0
#  433 |  168 |    1    | 255 255   0
#  434 |  168 |    1    | 255 255   0
#  435 |  168 |    1    | 255 255   0
#  436 |  168 |    1    |   0   0 255
#  437 |  168 |    1    |   0   0 255
#  438 |  168 |    1    |   0   0 255
#  439 |  168 |    1    |   0   0 255
#  440 |  168 |    1    |   0   0   0
#  420 |  169 |    1    |   0   0 255
#  421 |  169 |    1    |   0   0 255
#  422 |  169 |    1    |   0   0 255
#  423 |  169 |    1    | 255 255   0
#  424 |  169 |    1    | 255 255   0
#  425 |  169 |    1    | 255 255   0
#  426 |  169 |    1    | 255 255   0
#  427 |  169 |    1    | 255 255   0
#  428 |  169 |    1    | 255 255   0
#  429 |  169 |    1    | 255 255   0
#  430 |  169 |    1    | 255 255   0
#  431 |  169 |    1    | 255 255   0
#  432 |  169 |    1    | 255 255   0
#  433 |  169 |    1    |   0   0 255
#  434 |  169 |    1    |   0   0 255
#  435 |  169 |    1    |   0   0 255
#  436 |  169 |    1    |   0   0 255
#  437 |  169 |    1    |   0   0 255
#  438 |  169 |    1    |   0   0 255
#  439 |  169 |    1    |   0   0 255
#  440 |  169 |    1    |   0   0   0
#  420 |  170 |    1    |   0   0   0
#  421 |  170 |    1    |   0   0   0
#  422 |  170 |    1    |   0   0   0
#  423 |  170 |    1    |   0   0   0
#  424 |  170 |    1    |   0   0   0
#  425 |  170 |    1    |   0   0   0
#  426 |  170 |    1    |   0   0   0
#  427 |  170 |    1    |   0   0   0
#  428 |  170 |    1    |   0   0   0
#  429 |  170 |    1    |   0   0   0
#  430 |  170 |    1    |   0   0   0
#  431 |  170 |    1    |   0   0   0
#  432 |  170 |    1    |   0   0   0
#  433 |  170 |    1    |   0   0   0
#  434 |  170 |    1    |   0   0   0
#  435 |  170 |    1    |   0   0   0
#  436 |  170 |    1    |   0   0   0
#  437 |  170 |    1    |   0   0   0
#  438 |  170 |    1    |   0   0   0
#  439 |  170 |    1    |   0   0   0
#  440 |  170 |    1    |   0   0   0
# ** Note: $finish    : C:/Users/josee/CE3201_PF/tb_Rom_tile.sv(38)
#    Time: 231 ns  Iteration: 0  Instance: /tb_Rom_tile
# 1
# Break in Module tb_Rom_tile at C:/Users/josee/CE3201_PF/tb_Rom_tile.sv line 38
# End time: 18:26:04 on Jun 15,2025, Elapsed time: 0:00:29
# Errors: 0, Warnings: 0
