simulation/modelsim/tb_register_file.vcd
$date
	Fri Jun 06 23:22:54 2025
$end
$version
	ModelSim Version 10.5b
$end
$timescale
	1ps
$end

$scope module tb_Register_File $end
$var reg 4 ! A1 [3:0] $end
$var reg 4 " A2 [3:0] $end
$var reg 4 # A3 [3:0] $end
$var reg 1 $ clk $end
$var reg 1 % rst $end
$var reg 1 & WE3 $end
$var reg 32 ' WD3 [31:0] $end
$var reg 32 ( R15 [31:0] $end
$var reg 32 ) RD1 [31:0] $end
$var reg 32 * RD2 [31:0] $end

$scope module uut $end
$var wire 1 + A1 [3] $end
$var wire 1 , A1 [2] $end
$var wire 1 - A1 [1] $end
$var wire 1 . A1 [0] $end
$var wire 1 / A2 [3] $end
$var wire 1 0 A2 [2] $end
$var wire 1 1 A2 [1] $end
$var wire 1 2 A2 [0] $end
$var wire 1 3 A3 [3] $end
$var wire 1 4 A3 [2] $end
$var wire 1 5 A3 [1] $end
$var wire 1 6 A3 [0] $end
$var wire 1 7 clk $end
$var wire 1 8 rst $end
$var wire 1 9 WE3 $end
$var wire 1 : WD3 [31] $end
$var wire 1 ; WD3 [30] $end
$var wire 1 < WD3 [29] $end
$var wire 1 = WD3 [28] $end
$var wire 1 > WD3 [27] $end
$var wire 1 ? WD3 [26] $end
$var wire 1 @ WD3 [25] $end
$var wire 1 A WD3 [24] $end
$var wire 1 B WD3 [23] $end
$var wire 1 C WD3 [22] $end
$var wire 1 D WD3 [21] $end
$var wire 1 E WD3 [20] $end
$var wire 1 F WD3 [19] $end
$var wire 1 G WD3 [18] $end
$var wire 1 H WD3 [17] $end
$var wire 1 I WD3 [16] $end
$var wire 1 J WD3 [15] $end
$var wire 1 K WD3 [14] $end
$var wire 1 L WD3 [13] $end
$var wire 1 M WD3 [12] $end
$var wire 1 N WD3 [11] $end
$var wire 1 O WD3 [10] $end
$var wire 1 P WD3 [9] $end
$var wire 1 Q WD3 [8] $end
$var wire 1 R WD3 [7] $end
$var wire 1 S WD3 [6] $end
$var wire 1 T WD3 [5] $end
$var wire 1 U WD3 [4] $end
$var wire 1 V WD3 [3] $end
$var wire 1 W WD3 [2] $end
$var wire 1 X WD3 [1] $end
$var wire 1 Y WD3 [0] $end
$var wire 1 Z R15 [31] $end
$var wire 1 [ R15 [30] $end
$var wire 1 \ R15 [29] $end
$var wire 1 ] R15 [28] $end
$var wire 1 ^ R15 [27] $end
$var wire 1 _ R15 [26] $end
$var wire 1 ` R15 [25] $end
$var wire 1 a R15 [24] $end
$var wire 1 b R15 [23] $end
$var wire 1 c R15 [22] $end
$var wire 1 d R15 [21] $end
$var wire 1 e R15 [20] $end
$var wire 1 f R15 [19] $end
$var wire 1 g R15 [18] $end
$var wire 1 h R15 [17] $end
$var wire 1 i R15 [16] $end
$var wire 1 j R15 [15] $end
$var wire 1 k R15 [14] $end
$var wire 1 l R15 [13] $end
$var wire 1 m R15 [12] $end
$var wire 1 n R15 [11] $end
$var wire 1 o R15 [10] $end
$var wire 1 p R15 [9] $end
$var wire 1 q R15 [8] $end
$var wire 1 r R15 [7] $end
$var wire 1 s R15 [6] $end
$var wire 1 t R15 [5] $end
$var wire 1 u R15 [4] $end
$var wire 1 v R15 [3] $end
$var wire 1 w R15 [2] $end
$var wire 1 x R15 [1] $end
$var wire 1 y R15 [0] $end
$var reg 32 z RD1 [31:0] $end
$var reg 32 { RD2 [31:0] $end
$upscope $end
$upscope $end
$enddefinitions $end
#0
$dumpvars
b0 !
b1 "
b10 #
0$
1%
0&
b11011110101011011011111011101111 '
b10010001101000101011001111000 (
bx )
bx *
bx z
bx {
0.
0-
0,
0+
12
01
00
0/
06
15
04
03
07
18
09
1Y
1X
1W
1V
0U
1T
1S
1R
0Q
1P
1O
1N
1M
1L
0K
1J
1I
0H
1G
1F
0E
1D
0C
1B
0A
1@
1?
1>
1=
0<
1;
1:
0y
0x
0w
1v
1u
1t
1s
0r
0q
1p
1o
0n
1m
0l
1k
0j
0i
0h
1g
0f
1e
1d
0c
0b
0a
1`
0_
0^
1]
0\
0[
0Z
$end
#5000
1$
17
b0 z
b0 {
b0 *
b0 )
#10000
0%
1&
b101010 '
0$
08
19
0Y
0W
0S
0R
0P
0O
0N
0M
0L
0J
0I
0G
0F
0D
0B
0@
0?
0>
0=
0;
0:
07
#15000
1$
17
#20000
b11 #
b1001101 '
0$
1Y
0X
1W
0T
1S
16
07
#25000
1$
17
#30000
b1111 #
b1111100111 '
0$
1X
0V
1T
1R
1Q
1P
14
13
07
#35000
1$
17
#40000
0&
b10 !
b11 "
0$
09
11
1-
07
b101010 z
b1001101 {
b1001101 *
b101010 )
#41000
b1111 !
b10 "
02
1.
1,
1+
b10010001101000101011001111000 z
b101010 {
b101010 *
b10010001101000101011001111000 )
#42000
1%
18
#45000
1$
17
b0 {
b0 *
#50000
0$
07
#52000
0%
b10 !
b11 "
08
12
0.
0,
0+
b0 z
b0 )
